Lab #5
…
5)

joined <- left_join(per, acc)

## Joining, by = c("STATE", "ST_CASE", "VE_FORMS", "COUNTY", "DAY", "MONTH",
## "HOUR", "MINUTE", "RUR_URB", "FUNC_SYS", "HARM_EV", "MAN_COLL", "SCH_BUS")

# joins by all columns with common names

6)

joined %>% filter(!(SEX==8 | SEX==9) & HOUR!=99) %>% group_by(DAY_WEEK, HOUR, SEX) %>% summarize(count = n())

## # A tibble: 336 x 4
## # Groups:   DAY_WEEK, HOUR [168]
##    DAY_WEEK  HOUR   SEX count
##       <int> <int> <int> <int>
##  1        1     0     1   488
##  2        1     0     2   221
##  3        1     1     1   482
##  4        1     1     2   200
##  5        1     2     1   535
##  6        1     2     2   238
##  7        1     3     1   376
##  8        1     3     2   148
##  9        1     4     1   312
## 10        1     4     2    79
## #  with 326 more rows
…
